<svg width="46" height="50" viewBox="0 0 46 50" fill="none" xmlns="http://www.w3.org/2000/svg">
<path d="M0 21.6216L22.973 35.1351L45.9459 21.6216V36.4864L22.973 50L0 36.4864V21.6216Z" fill="#F0612E"/>
<path d="M0 0L22.973 13.5135L45.9459 0V14.8649L22.973 28.3784L0 14.8649V0Z" fill="#F0612E"/>
</svg>
