<svg width="70" height="70" viewBox="0 0 70 70" fill="none" xmlns="http://www.w3.org/2000/svg">
<g clip-path="url(#clip0)">
<path d="M53.6365 11.6051C53.6669 11.6073 53.6974 11.6095 53.7284 11.6095C53.781 11.6095 53.8336 11.6051 53.8851 11.5979C55.2634 11.6261 56.3665 12.7503 56.3682 14.1286C56.3682 14.7549 56.876 15.2627 57.5023 15.2627C58.1286 15.2627 58.6364 14.7549 58.6364 14.1286C58.6336 11.8742 57.0643 9.92386 54.8625 9.43876V8.34895C54.8625 7.72265 54.3547 7.21484 53.7284 7.21484C53.1021 7.21484 52.5943 7.72265 52.5943 8.34895V9.49026C50.2663 10.1127 48.76 12.3648 49.074 14.7543C49.388 17.1438 51.4247 18.9303 53.8347 18.9303C55.2341 18.9303 56.3682 20.0649 56.3682 21.4643C56.3682 22.8631 55.2341 23.9978 53.8347 23.9978C52.4353 23.9978 51.3012 22.8631 51.3012 21.4643C51.3012 20.838 50.7934 20.3302 50.1671 20.3302C49.5408 20.3302 49.033 20.838 49.033 21.4643C49.0358 23.6373 50.4955 25.5383 52.5943 26.1026V27.3453C52.5943 27.9716 53.1021 28.4794 53.7284 28.4794C54.3547 28.4794 54.8625 27.9716 54.8625 27.3453V26.1547C57.2575 25.6303 58.8729 23.3853 58.6087 20.9476C58.3451 18.51 56.2868 16.6626 53.8347 16.6632C52.4741 16.6637 51.3561 15.5894 51.3023 14.2299C51.2492 12.8704 52.2797 11.7114 53.6365 11.6056V11.6051Z" fill="black"/>
<path d="M53.8995 1.66992C46.9226 1.66992 40.9686 6.22241 38.738 12.3182H10.5896C9.96609 12.3182 9.45995 12.8803 9.45552 13.5033L9.1875 53.2879H1.16401C0.537705 53.2879 0 53.7414 0 54.3689V59.4175C0.0143978 64.1705 3.75784 68.0751 8.50582 68.2899V68.3148H43.5214V68.2816C43.805 68.2921 43.9218 68.3148 44.1012 68.3148H44.1256C49.0397 68.3071 53.0196 64.3211 53.0196 59.407V33.8807C53.3031 33.8962 53.6033 33.9045 53.8967 33.9045C62.7752 33.9045 70.0002 26.6657 70.0002 17.7867C70.0002 8.90817 62.7786 1.66992 53.8995 1.66992ZM8.9372 66.0466H8.93C5.26131 66.0416 2.28483 63.0751 2.26822 59.4059V55.5561H35.1574V59.3898C35.159 61.7566 36.1043 64.0254 37.7833 65.6939C37.9024 65.8129 38.0502 65.9049 38.1748 66.0466H8.9372ZM50.7514 59.4059C50.7519 63.0685 47.7865 66.0394 44.1245 66.0466H44.1029C40.4259 66.04 37.4439 63.0674 37.4256 59.3909V54.3689C37.435 54.0787 37.3242 53.7979 37.1188 53.593C36.9134 53.3881 36.6326 53.2779 36.343 53.2879H11.4557L11.716 14.5865H38.1084C37.9074 15.6248 37.8033 16.6791 37.7977 17.7363C37.7955 19.9718 38.2618 22.1824 39.1666 24.2264H28.4546C27.8278 24.2264 27.3205 24.7342 27.3205 25.3605C27.3205 25.9868 27.8278 26.4946 28.4546 26.4946H40.3971C42.7367 30.1738 46.4769 32.7388 50.7514 33.5972V59.4059ZM53.8995 31.6369C46.2598 31.6369 40.0659 25.4436 40.0665 17.8033C40.0665 10.163 46.2598 3.9697 53.9001 3.9697C61.5398 3.9697 67.7331 10.1636 67.7331 17.8033C67.7248 25.4397 61.5365 31.6285 53.8995 31.6369Z" fill="black"/>
<path d="M21.1748 31.7744C19.1729 31.7744 17.5449 33.351 17.5449 35.2892C17.5449 37.2273 19.1729 38.8039 21.1748 38.8039C23.1766 38.8039 24.8053 37.2273 24.8053 35.2892C24.8053 33.351 23.1766 31.7744 21.1748 31.7744ZM21.1748 36.5357C20.4233 36.5357 19.8131 35.9764 19.8131 35.2892C19.8131 34.6014 20.4239 34.0426 21.1748 34.0426C21.9257 34.0426 22.537 34.6019 22.537 35.2892C22.537 35.9764 21.9257 36.5357 21.1748 36.5357Z" fill="black"/>
<path d="M27.3205 35.284C27.3205 35.9103 27.8277 36.4181 28.4546 36.4181H43.5746C44.2009 36.4181 44.7087 35.9103 44.7087 35.284C44.7087 34.6577 44.2009 34.1499 43.5746 34.1499H28.4546C27.8277 34.1499 27.3205 34.6577 27.3205 35.284Z" fill="black"/>
<path d="M21.1748 21.9155C19.1729 21.9155 17.5449 23.4926 17.5449 25.4308C17.5449 27.369 19.1729 28.9456 21.1748 28.9456C23.1766 28.9456 24.8053 27.369 24.8053 25.4308C24.8053 23.4926 23.1766 21.9155 21.1748 21.9155ZM21.1748 26.6773C20.4233 26.6773 19.8131 26.118 19.8131 25.4308C19.8131 24.7436 20.4239 24.1837 21.1748 24.1837C21.9257 24.1837 22.537 24.743 22.537 25.4308C22.537 26.118 21.9257 26.6779 21.1748 26.6779V26.6773Z" fill="black"/>
<path d="M21.1748 41.6318C19.1729 41.6318 17.5449 43.2084 17.5449 45.1466C17.5449 47.0848 19.1729 48.6613 21.1748 48.6613C23.1766 48.6613 24.8053 47.0848 24.8053 45.1466C24.8053 43.2084 23.1766 41.6318 21.1748 41.6318ZM21.1748 46.3931C20.4233 46.3931 19.8131 45.8344 19.8131 45.1466C19.8131 44.4594 20.4239 43.9001 21.1748 43.9001C21.9257 43.9001 22.537 44.4594 22.537 45.1466C22.537 45.8338 21.9257 46.3931 21.1748 46.3931Z" fill="black"/>
<path d="M43.5746 44.0732H28.4546C27.8277 44.0732 27.3205 44.581 27.3205 45.2073C27.3205 45.8337 27.8277 46.3415 28.4546 46.3415H43.5746C44.2009 46.3415 44.7087 45.8337 44.7087 45.2073C44.7087 44.581 44.2009 44.0732 43.5746 44.0732Z" fill="black"/>
</g>
<defs>
<clipPath id="clip0">
<rect width="70" height="70" fill="white"/>
</clipPath>
</defs>
</svg>
