<svg width="390" height="200" viewBox="0 0 390 200" fill="none" xmlns="http://www.w3.org/2000/svg">
<path d="M380 195C380 92.8273 297.173 10 195 10C92.8273 10 10 92.8273 10 195" stroke="#E6E5EA" stroke-width="2"/>
<circle cx="10" cy="190" r="10" fill="#F0612E"/>
<circle cx="380" cy="190" r="10" fill="#F0612E"/>
<circle cx="350" cy="93" r="10" fill="#F0612E"/>
<circle cx="269" cy="25" r="10" fill="#F0612E"/>
<circle cx="122" cy="25" r="10" fill="#F0612E"/>
<circle cx="195" cy="10" r="10" fill="#F0612E"/>
<circle cx="40" cy="93" r="10" fill="#F0612E"/>
</svg>
